.assembly extern mscorlib
{
  .ver 4:0:0:0
  .publickeytoken = (B7 7A 5C 56 19 34 E0 89 ) // .z\V.4..
}
.assembly 'program'
{
  .custom instance void class [mscorlib]System.Runtime.CompilerServices.RuntimeCompatibilityAttribute::'.ctor'() =  (
		01 00 01 00 54 02 16 57 72 61 70 4E 6F 6E 45 78   // ....T..WrapNonEx
		63 65 70 74 69 6F 6E 54 68 72 6F 77 73 01       ) // ceptionThrows.

  .hash algorithm 0x00008004
  .ver  0:0:0:0
}
.module program.exe // GUID = {6B1223E7-3F36-416A-A14B-918CD0A383BF}


.namespace _01_C_
{
  .class private auto ansi beforefieldinit Program
  	extends [mscorlib]System.Object
  {

    // method line 1
    .method public hidebysig specialname rtspecialname 
           instance default void '.ctor' ()  cil managed 
    {
        // Method begins at RVA 0x2050
	// Code size 7 (0x7)
	.maxstack 8
	IL_0000:  ldarg.0 
	IL_0001:  call instance void object::'.ctor'()
	IL_0006:  ret 
    } // end of method Program::.ctor

    // method line 2
    .method private static hidebysig 
           default void Main (string[] args)  cil managed 
    {
        // Method begins at RVA 0x2058
	.entrypoint
	// Code size 46 (0x2e)
	.maxstack 8
	IL_0000:  ldstr "Hello World!"
	IL_0005:  call void class [mscorlib]System.Console::WriteLine(string)
	IL_000a:  ldstr "Hello World!"
	IL_000f:  call void class [mscorlib]System.Console::WriteLine(string)
	IL_0014:  ldstr "The current time is {0}"
	IL_0019:  call valuetype [mscorlib]System.DateTime valuetype [mscorlib]System.DateTime::get_Now()
	IL_001e:  box [mscorlib]System.DateTime
	IL_0023:  call string string::Format(string, object)
	IL_0028:  call void class [mscorlib]System.Console::WriteLine(string)
	IL_002d:  ret 
    } // end of method Program::Main

  } // end of class _01_C_.Program
}

